Bike Rentals · Portfolio website for Oana Muntean
…
We can see the distribution of bikes for 2019 and 2020 in the following graph:

bike_first<-bike %>% 
  filter(year>=2019 ) 

bike_first

## # A tibble: 609 x 6
##    day                 bikes_hired  year month  week  dayy
##    <dttm>                    <dbl> <dbl> <ord> <dbl> <int>
##  1 2019-01-01 00:00:00       14148  2019 Jan       1     1
##  2 2019-01-02 00:00:00       19746  2019 Jan       1     2
##  3 2019-01-03 00:00:00       21552  2019 Jan       1     3
##  4 2019-01-04 00:00:00       20863  2019 Jan       1     4
##  5 2019-01-05 00:00:00       13907  2019 Jan       1     5
##  6 2019-01-06 00:00:00       14262  2019 Jan       1     6
##  7 2019-01-07 00:00:00       25668  2019 Jan       2     7
##  8 2019-01-08 00:00:00       27757  2019 Jan       2     8
##  9 2019-01-09 00:00:00       26568  2019 Jan       2     9
## 10 2019-01-10 00:00:00       26022  2019 Jan       2    10
## # ... with 599 more rows
…
